<style>
  #Elipse_5 {
    position: absolute;
    height: 125px;
    left: 35%;
    top: 20%;
    overflow: visible;
}

#Nombres_y_apellidos {
    left: 3%;
    top: 40%;
    position: absolute;
    overflow: visible;
    width: 363px;
    white-space: nowrap;
    text-align: center;
    font-family: Segoe UI;
    font-style: normal;
    font-weight: normal;
    font-size: 20px;
    color: rgba(255,255,255,1);
}

#Nombres_y_apellidos2 {
    left: 3%;
    top: 60%;
    position: absolute;
    overflow: visible;
    width: 363px;
    white-space: nowrap;
    text-align: center;
    font-family: Segoe UI;
    font-style: normal;
    font-weight: normal;
    font-size: 20px;
    color: rgba(255,255,255,1);
}

#logo-img{
    position: absolute;
    height: 80px;
    left: 32%;
    top: 55%;
    overflow: visible;
}
  
  </style>




<div class="p-3 mb-4 mt-4 bg-secondary text-white">
    <p class="text-center font-weight-bold">Cambiar contraseña</p>
</div>

<div>
    <div>

        <img id="Elipse_5" src="img/Elipse_5.png" alt="">
        
        <div id="Nombres_y_apellidos">
            <div>
                <span>Trabajador:</span>
                <span>Gustavo López</span>
            </div>

            <div>

                <span>N° documento:</span>
                <span>987654321</span>

            </div>
        </div>
        

        <div id="Nombres_y_apellidos2">

            <div>
                <span>Registros Enviados</span>
            </div>

            <div>
                <span>Cambiar contraseña</span>
            </div>

        
            <div class="custom-control custom-switch">
                    <input type="checkbox" class="custom-control-input" id="customSwitch1">     
                    <label class="custom-control-label" for="customSwitch1">Notificaciones</label>
            </div>


            <img id="logo-img" src="img/logo.png" alt="">


        </div>
    


    </div>
</div>
